module gitlab.com/Alzoww/rgateway/microservice1

go 1.19

require (
	github.com/golang/protobuf v1.5.4 // indirect
	github.com/grpc-ecosystem/grpc-gateway/v2 v2.19.1 // indirect
	golang.org/x/net v0.22.0 // indirect
	golang.org/x/sys v0.18.0 // indirect
	golang.org/x/text v0.14.0 // indirect
	google.golang.org/genproto v0.0.0-20240311173647-c811ad7063a7 // indirect
	google.golang.org/genproto/googleapis/api v0.0.0-20240311173647-c811ad7063a7 // indirect
	google.golang.org/genproto/googleapis/rpc v0.0.0-20240311173647-c811ad7063a7 // indirect
	google.golang.org/grpc v1.62.1 // indirect
	google.golang.org/protobuf v1.33.0 // indirect
	gopkg.in/yaml.v3 v3.0.1 // indirect
)
